%YAML 1.1
%TAG !u! tag:unity3d.com,2011:
--- !u!114 &11400000
MonoBehaviour:
  m_ObjectHideFlags: 0
  m_CorrespondingSourceObject: {fileID: 0}
  m_PrefabInstance: {fileID: 0}
  m_PrefabAsset: {fileID: 0}
  m_GameObject: {fileID: 0}
  m_Enabled: 1
  m_EditorHideFlags: 0
  m_Script: {fileID: 11500000, guid: f26342d8fdbc60545b2c8f929e8799fd, type: 3}
  m_Name: BallDb
  m_EditorClassIdentifier: 
  _presets:
  - Name: Ink
    Icon: {r: 0, g: 0, b: 0, a: 1}
    Visual: {fileID: 600642875333755437, guid: ab19bba4a4f5e5d4d8fcb9a9c8c314b1, type: 3}
  - Name: Red
    Icon: {r: 0.5754717, g: 0.10586509, b: 0.10586509, a: 1}
    Visual: {fileID: 600642875333755437, guid: 10e29f0e6617f85459eddb58b94ed0a3, type: 3}
