%YAML 1.1
%TAG !u! tag:unity3d.com,2011:
--- !u!1 &7186305290270542144
GameObject:
  m_ObjectHideFlags: 0
  m_CorrespondingSourceObject: {fileID: 0}
  m_PrefabInstance: {fileID: 0}
  m_PrefabAsset: {fileID: 0}
  serializedVersion: 6
  m_Component:
  - component: {fileID: 7186305290270542148}
  - component: {fileID: 7186305290270542145}
  m_Layer: 0
  m_Name: PinkTentacleWall
  m_TagString: Untagged
  m_Icon: {fileID: 0}
  m_NavMeshLayer: 0
  m_StaticEditorFlags: 0
  m_IsActive: 1
--- !u!4 &7186305290270542148
Transform:
  m_ObjectHideFlags: 0
  m_CorrespondingSourceObject: {fileID: 0}
  m_PrefabInstance: {fileID: 0}
  m_PrefabAsset: {fileID: 0}
  m_GameObject: {fileID: 7186305290270542144}
  m_LocalRotation: {x: 0, y: 0, z: 0, w: 1}
  m_LocalPosition: {x: 0, y: 0, z: 0}
  m_LocalScale: {x: 1, y: 1, z: 1}
  m_Children: []
  m_Father: {fileID: 0}
  m_RootOrder: 0
  m_LocalEulerAnglesHint: {x: 0, y: 0, z: 0}
--- !u!114 &7186305290270542145
MonoBehaviour:
  m_ObjectHideFlags: 0
  m_CorrespondingSourceObject: {fileID: 0}
  m_PrefabInstance: {fileID: 0}
  m_PrefabAsset: {fileID: 0}
  m_GameObject: {fileID: 7186305290270542144}
  m_Enabled: 1
  m_EditorHideFlags: 0
  m_Script: {fileID: 11500000, guid: ba0b1cbe5b149d64585465594768ee72, type: 3}
  m_Name: 
  m_EditorClassIdentifier: 
  _pointsParams:
    Lines: 6
    PointsPerLine: 11
    MinMaxLength:
      x: 5
      y: 9
    SpawnXOffset:
      x: 0
      y: 0.25
    WidthFromTo:
      x: 0.04
      y: 0.065
    SpawnYDisplacement:
      x: 0.6
      y: 2
    SpawnStopLine: -0.2
  _bounds:
    x: 0.4
    y: 7
  _sinParams:
    MotionScale:
      x: 1
      y: 3
    Amplitude:
      x: 0.25
      y: 0.24
  _from: {r: 1, g: 0.18396226, b: 0.49017173, a: 1}
  _to: {r: 0.6132076, g: 0.118592024, b: 0.30407286, a: 1}
  _renderer: {fileID: 2100000, guid: d578cf88ea4d0d746bbb18ef41aa38e1, type: 2}
  _segments: 128
  _activateDistance:
    x: 3
    y: 3
  _tentacleActivateDistance:
    x: 2
    y: 2
  _nodeBounds:
    x: 2.5
    y: 2.5
  _nodeActivateDistance:
    x: 2.5
    y: 6
  _nodeDecreaseRate: 2.25
